{
    "meta": {
        "page": {
            "current-page": 1,
            "per-page": 15,
            "from": 1,
            "to": 15,
            "total": 15,
            "last-page": 1
        }
    },
    "links": {
        "first": "https://classify-rest.labs.nic.at/api/v1/categories?page%5Bnumber%5D=1&page%5Bsize%5D=15",
        "next": "https://classify-rest.labs.nic.at/api/v1/categories?page%5Bnumber%5D=2&page%5Bsize%5D=15",
        "last": "https://classify-rest.labs.nic.at/api/v1/categories?page%5Bnumber%5D=10&page%5Bsize%5D=15"
    },
    "data": [
        {
            "type": "categories",
            "id": "1408",
            "attributes": {
                "website-category-id": 1408,
                "maincategory": "Construction",
                "subcategory": "Floor and Wall Covering",
                "lang": "en",
                "description": "Floor and wall covering services, including laying, tiling, hanging or fitting of tiles, wallpaper, interior cladding and carpets."
            },
            "relationships": {
                "measurements": {
                    "meta": {
                        "total": 2
                    },
                    "links": {
                        "self": "https://classify-rest.labs.nic.at/api/v1/categories/1408/relationships/measurements",
                        "related": "https://classify-rest.labs.nic.at/api/v1/categories/1408/measurements"
                    }
                }
            },
            "links": {
                "self": "https://classify-rest.labs.nic.at/api/v1/categories/1408"
            }
        },
        {
            "type": "categories",
            "id": "1409",
            "attributes": {
                "website-category-id": 1409,
                "maincategory": "Construction",
                "subcategory": "Plastering",
                "lang": "en",
                "description": "Plastering and rendering services including application of stucco and other lathing materials."
            },
            "relationships": {
                "measurements": {
                    "meta": {
                        "total": 0
                    },
                    "links": {
                        "self": "https://classify-rest.labs.nic.at/api/v1/categories/1409/relationships/measurements",
                        "related": "https://classify-rest.labs.nic.at/api/v1/categories/1409/measurements"
                    }
                }
            },
            "links": {
                "self": "https://classify-rest.labs.nic.at/api/v1/categories/1409"
            }
        },
        {
            "type": "categories",
            "id": "1400",
            "attributes": {
                "website-category-id": 1400,
                "maincategory": "Construction",
                "subcategory": "Architects & Planners",
                "lang": "en",
                "description": "Architectural services (e.g. urban design, structural building design and building surveyors)."
            },
            "relationships": {
                "measurements": {
                    "meta": {
                        "total": 2
                    },
                    "links": {
                        "self": "https://classify-rest.labs.nic.at/api/v1/categories/1401/relationships/measurements",
                        "related": "https://classify-rest.labs.nic.at/api/v1/categories/1401/measurements"
                    }
                }
            },
            "links": {
                "self": "https://classify-rest.labs.nic.at/api/v1/categories/1401"
            }
        },
        {
            "type": "categories",
            "id": "1401",
            "attributes": {
                "website-category-id": 1401,
                "maincategory": "Construction",
                "subcategory": "Architects & Planners",
                "lang": "en",
                "description": "Architectural services (e.g. urban design, structural building design and building surveyors)."
            },
            "relationships": {
                "measurements": {
                    "meta": {
                        "total": 2
                    },
                    "links": {
                        "self": "https://classify-rest.labs.nic.at/api/v1/categories/1401/relationships/measurements",
                        "related": "https://classify-rest.labs.nic.at/api/v1/categories/1401/measurements"
                    }
                }
            },
            "links": {
                "self": "https://classify-rest.labs.nic.at/api/v1/categories/1401"
            }
        },
        {
            "type": "categories",
            "id": "1402",
            "attributes": {
                "website-category-id": 1402,
                "maincategory": "Construction",
                "subcategory": "Development of Building Projects",
                "lang": "en",
                "description": "Construction of residential and non-residential buildings, including construction of extensions and attic/garage conversions. Project management of building projects. Demolition and site preparation services including excavation, test drilling and clearing of building sites."
            },
            "relationships": {
                "measurements": {
                    "meta": {
                        "total": 6
                    },
                    "links": {
                        "self": "https://classify-rest.labs.nic.at/api/v1/categories/1402/relationships/measurements",
                        "related": "https://classify-rest.labs.nic.at/api/v1/categories/1402/measurements"
                    }
                }
            },
            "links": {
                "self": "https://classify-rest.labs.nic.at/api/v1/categories/1402"
            }
        },
        {
            "type": "categories",
            "id": "1403",
            "attributes": {
                "website-category-id": 1403,
                "maincategory": "Construction",
                "subcategory": "Development of Infrastructure Projects",
                "lang": "en",
                "description": "Project management and construction of roads, railways, and other infrastructure & civil engineering projects. Including sports facilities, and utility and water projects (e.g. reservoirs, power plants, harbours). Also includes related activies like painting of road markings."
            },
            "relationships": {
                "measurements": {
                    "meta": {
                        "total": 0
                    },
                    "links": {
                        "self": "https://classify-rest.labs.nic.at/api/v1/categories/1403/relationships/measurements",
                        "related": "https://classify-rest.labs.nic.at/api/v1/categories/1403/measurements"
                    }
                }
            },
            "links": {
                "self": "https://classify-rest.labs.nic.at/api/v1/categories/1403"
            }
        },
        {
            "type": "categories",
            "id": "1404",
            "attributes": {
                "website-category-id": 1404,
                "maincategory": "Construction",
                "subcategory": "Electrical Installation",
                "lang": "en",
                "description": "Electrical installation, including electricians, lighting experts, PAT testing services, aerial/network specialists and installation of solar panels."
            },
            "relationships": {
                "measurements": {
                    "meta": {
                        "total": 6
                    },
                    "links": {
                        "self": "https://classify-rest.labs.nic.at/api/v1/categories/1404/relationships/measurements",
                        "related": "https://classify-rest.labs.nic.at/api/v1/categories/1404/measurements"
                    }
                }
            },
            "links": {
                "self": "https://classify-rest.labs.nic.at/api/v1/categories/1404"
            }
        },
        {
            "type": "categories",
            "id": "1405",
            "attributes": {
                "website-category-id": 1405,
                "maincategory": "Construction",
                "subcategory": "Plumbing, Heating and Air-Conditioning Installation",
                "lang": "en",
                "description": "Plumbing, heating and air-conditioning services, including plumbers, drainage specialists, heating engineers and bathroom & swimming pool specialists."
            },
            "relationships": {
                "measurements": {
                    "meta": {
                        "total": 10
                    },
                    "links": {
                        "self": "https://classify-rest.labs.nic.at/api/v1/categories/1405/relationships/measurements",
                        "related": "https://classify-rest.labs.nic.at/api/v1/categories/1405/measurements"
                    }
                }
            },
            "links": {
                "self": "https://classify-rest.labs.nic.at/api/v1/categories/1405"
            }
        },
        {
            "type": "categories",
            "id": "1406",
            "attributes": {
                "website-category-id": 1406,
                "maincategory": "Construction",
                "subcategory": "Roofing Activities",
                "lang": "en",
                "description": "Roofing activities including roof erection, guttering and roof tiling, slating and thatching."
            },
            "relationships": {
                "measurements": {
                    "meta": {
                        "total": 3
                    },
                    "links": {
                        "self": "https://classify-rest.labs.nic.at/api/v1/categories/1406/relationships/measurements",
                        "related": "https://classify-rest.labs.nic.at/api/v1/categories/1406/measurements"
                    }
                }
            },
            "links": {
                "self": "https://classify-rest.labs.nic.at/api/v1/categories/1406"
            }
        },
        {
            "type": "categories",
            "id": "1410",
            "attributes": {
                "website-category-id": 1410,
                "maincategory": "Construction",
                "subcategory": "Joinery Installation",
                "lang": "en",
                "description": "Joinery installation including carpentry, joinery, kitchen/bedroom/shop design & installation, and installers of doors and staircases."
            },
            "relationships": {
                "measurements": {
                    "meta": {
                        "total": 1
                    },
                    "links": {
                        "self": "https://classify-rest.labs.nic.at/api/v1/categories/1410/relationships/measurements",
                        "related": "https://classify-rest.labs.nic.at/api/v1/categories/1410/measurements"
                    }
                }
            },
            "links": {
                "self": "https://classify-rest.labs.nic.at/api/v1/categories/1410"
            }
        },
        {
            "type": "categories",
            "id": "1411",
            "attributes": {
                "website-category-id": 1411,
                "maincategory": "Construction",
                "subcategory": "Rental of Construction and Earthmoving Machinery",
                "lang": "en",
                "description": "Renting & leasing of construction equipment/machinery without erection/operator, including crane lorries, scaffolding and machine tools."
            },
            "relationships": {
                "measurements": {
                    "meta": {
                        "total": 1
                    },
                    "links": {
                        "self": "https://classify-rest.labs.nic.at/api/v1/categories/1411/relationships/measurements",
                        "related": "https://classify-rest.labs.nic.at/api/v1/categories/1411/measurements"
                    }
                }
            },
            "links": {
                "self": "https://classify-rest.labs.nic.at/api/v1/categories/1411"
            }
        },
        {
            "type": "categories",
            "id": "1407",
            "attributes": {
                "website-category-id": 1407,
                "maincategory": "Construction",
                "subcategory": "Painting and Glazing",
                "lang": "en",
                "description": "Painting and glazing services, including: painters & decorators, glazers (fitters of windows & mirrors), stained glass specialists and conservatory construction."
            },
            "relationships": {
                "measurements": {
                    "meta": {
                        "total": 4
                    },
                    "links": {
                        "self": "https://classify-rest.labs.nic.at/api/v1/categories/1407/relationships/measurements",
                        "related": "https://classify-rest.labs.nic.at/api/v1/categories/1407/measurements"
                    }
                }
            },
            "links": {
                "self": "https://classify-rest.labs.nic.at/api/v1/categories/1407"
            }
        }
        
    ]
}